<?xml version="1.0" encoding="utf-8"?>
<!-- Generator: Adobe Illustrator 22.1.0, SVG Export Plug-In . SVG Version: 6.00 Build 0)  -->
<svg version="1.1" id="Capa_1" xmlns="http://www.w3.org/2000/svg" xmlns:xlink="http://www.w3.org/1999/xlink" x="0px" y="0px"
	 viewBox="0 0 442 442" style="enable-background:new 0 0 442 442;" xml:space="preserve">
<style type="text/css">
	.st0{fill:#8982AD;}
</style>
<path class="st0" d="M231.5,50.5c0-5.8-4.7-10.5-10.5-10.5s-10.5,4.7-10.5,10.5S215.2,61,221,61S231.5,56.3,231.5,50.5z"/>
<path class="st0" d="M346,163.7h-60V122c0-5.5-4.5-10-10-10h-10V10c0-5.5-4.5-10-10-10h-70c-5.5,0-10,4.5-10,10v102h-10
	c-5.5,0-10,4.5-10,10v41.7H96c-11,0-20,9-20,20V422c0,11,9,20,20,20h250c11,0,20-9,20-20V183.7C366,172.7,357,163.7,346,163.7z
	 M196,20h50v92h-50V20z M96,422V183.7h70c5.5,0,10-4.5,10-10V132h35v71.7h-85c-5.5,0-10,4.5-10,10V392c0,5.5,4.5,10,10,10h190
	c5.5,0,10-4.5,10-10v-60.9c0-5.5-4.5-10-10-10s-10,4.5-10,10V382H136V223.7h170V297c0,5.5,4.5,10,10,10s10-4.5,10-10v-83.3
	c0-5.5-4.5-10-10-10h-85V132h35v41.7c0,5.5,4.5,10,10,10h70V422H96z"/>
</svg>
